[2021-08-24 07:52:39,055] {taskinstance.py:903} INFO - Dependencies all met for <TaskInstance: example_complex.delete_tag_template_field 2021-08-24T07:52:18.587646+00:00 [queued]>
[2021-08-24 07:52:39,070] {taskinstance.py:903} INFO - Dependencies all met for <TaskInstance: example_complex.delete_tag_template_field 2021-08-24T07:52:18.587646+00:00 [queued]>
[2021-08-24 07:52:39,071] {taskinstance.py:1094} INFO - 
--------------------------------------------------------------------------------
[2021-08-24 07:52:39,072] {taskinstance.py:1095} INFO - Starting attempt 1 of 1
[2021-08-24 07:52:39,072] {taskinstance.py:1096} INFO - 
--------------------------------------------------------------------------------
[2021-08-24 07:52:39,088] {taskinstance.py:1114} INFO - Executing <Task(BashOperator): delete_tag_template_field> on 2021-08-24T07:52:18.587646+00:00
[2021-08-24 07:52:39,094] {standard_task_runner.py:52} INFO - Started process 868 to run task
[2021-08-24 07:52:39,108] {standard_task_runner.py:76} INFO - Running: ['***', 'tasks', 'run', 'example_complex', 'delete_tag_template_field', '2021-08-24T07:52:18.587646+00:00', '--job-id', '87', '--pool', 'default_pool', '--raw', '--subdir', '/home/***/.local/lib/python3.6/site-packages/***/example_dags/example_complex.py', '--cfg-path', '/tmp/tmpgqq5tsbn', '--error-file', '/tmp/tmpv1ivz9ur']
[2021-08-24 07:52:39,109] {standard_task_runner.py:77} INFO - Job 87: Subtask delete_tag_template_field
[2021-08-24 07:52:39,158] {logging_mixin.py:109} INFO - Running <TaskInstance: example_complex.delete_tag_template_field 2021-08-24T07:52:18.587646+00:00 [running]> on host a7b97b968ef6
[2021-08-24 07:52:39,219] {taskinstance.py:1253} INFO - Exporting the following env vars:
AIRFLOW_CTX_DAG_OWNER=***
AIRFLOW_CTX_DAG_ID=example_complex
AIRFLOW_CTX_TASK_ID=delete_tag_template_field
AIRFLOW_CTX_EXECUTION_DATE=2021-08-24T07:52:18.587646+00:00
AIRFLOW_CTX_DAG_RUN_ID=manual__2021-08-24T07:52:18.587646+00:00
[2021-08-24 07:52:39,221] {subprocess.py:52} INFO - Tmp dir root location: 
 /tmp
[2021-08-24 07:52:39,222] {subprocess.py:63} INFO - Running command: ['bash', '-c', 'echo delete_tag_template_field']
[2021-08-24 07:52:39,233] {subprocess.py:74} INFO - Output:
[2021-08-24 07:52:39,237] {subprocess.py:78} INFO - delete_tag_template_field
[2021-08-24 07:52:39,238] {subprocess.py:82} INFO - Command exited with return code 0
[2021-08-24 07:52:39,272] {taskinstance.py:1218} INFO - Marking task as SUCCESS. dag_id=example_complex, task_id=delete_tag_template_field, execution_date=20210824T075218, start_date=20210824T075239, end_date=20210824T075239
[2021-08-24 07:52:39,317] {local_task_job.py:151} INFO - Task exited with return code 0
[2021-08-24 07:52:39,347] {local_task_job.py:261} INFO - 1 downstream tasks scheduled from follow-on schedule check
